def bubble_sort(seq):
    changed = True
    while changed:
        changed = False
        for i in range(len(seq) - 1):
            if seq[i] > seq[i+1]:
                seq[i], seq[i+1] = seq[i+1], seq[i]
                changed = True
    return None
